{"failedCount":0,"prefixedPath":"src\/test\/java\/users\/get\/user_get.feature","packageQualifiedName":"src.test.java.users.get.user_get","loopIndex":-1,"relativePath":"src\/test\/java\/users\/get\/user_get.feature","scenarioResults":[{"sectionIndex":0,"stepResults":[{"result":{"nanos":77415900,"millis":77.4159,"status":"passed"},"step":{"line":4,"prefix":"Given","index":0,"text":"url \"https:\/\/reqres.in\/\" + \"\/api\/users\" + \"2\""}},{"result":{"nanos":1066380100,"millis":1066.3801,"status":"passed"},"step":{"line":5,"prefix":"When","index":1,"text":"method get"},"stepLog":"17:18:47.468 request:\n1 > GET https:\/\/reqres.in\/\/api\/users2\n1 > Host: reqres.in\n1 > Connection: Keep-Alive\n1 > User-Agent: Apache-HttpClient\/4.5.13 (Java\/11.0.21)\n1 > Accept-Encoding: gzip,deflate\n\n\n17:18:48.026 response time in milliseconds: 556\n1 < 200\n1 < Date: Tue, 19 Mar 2024 22:18:43 GMT\n1 < Content-Type: application\/json; charset=utf-8\n1 < Transfer-Encoding: chunked\n1 < Connection: keep-alive\n1 < Report-To: {\"group\":\"heroku-nel\",\"max_age\":3600,\"endpoints\":[{\"url\":\"https:\/\/nel.heroku.com\/reports?ts=1710811499&sid=c4c9725f-1ab0-44d8-820f-430df2718e11&s=uNlGEw8Cr4ZhU90qHnvsETs5mBF7VjK8RQo7cy4UdIo%3D\"}]}\n1 < Reporting-Endpoints: heroku-nel=https:\/\/nel.heroku.com\/reports?ts=1710811499&sid=c4c9725f-1ab0-44d8-820f-430df2718e11&s=uNlGEw8Cr4ZhU90qHnvsETs5mBF7VjK8RQo7cy4UdIo%3D\n1 < Nel: {\"report_to\":\"heroku-nel\",\"max_age\":3600,\"success_fraction\":0.005,\"failure_fraction\":0.05,\"response_headers\":[\"Via\"]}\n1 < X-Powered-By: Express\n1 < Access-Control-Allow-Origin: *\n1 < Etag: W\/\"2c1-N6Rqerxquq2kgQhL51EiSg4x0R8\"\n1 < Via: 1.1 vegur\n1 < Cache-Control: max-age=14400\n1 < CF-Cache-Status: HIT\n1 < Age: 153\n1 < Vary: Accept-Encoding\n1 < Server: cloudflare\n1 < CF-RAY: 8670d7070d515730-MIA\n{\"page\":1,\"per_page\":6,\"total\":12,\"total_pages\":2,\"data\":[{\"id\":1,\"name\":\"cerulean\",\"year\":2000,\"color\":\"#98B2D1\",\"pantone_value\":\"15-4020\"},{\"id\":2,\"name\":\"fuchsia rose\",\"year\":2001,\"color\":\"#C74375\",\"pantone_value\":\"17-2031\"},{\"id\":3,\"name\":\"true red\",\"year\":2002,\"color\":\"#BF1932\",\"pantone_value\":\"19-1664\"},{\"id\":4,\"name\":\"aqua sky\",\"year\":2003,\"color\":\"#7BC4C4\",\"pantone_value\":\"14-4811\"},{\"id\":5,\"name\":\"tigerlily\",\"year\":2004,\"color\":\"#E2583E\",\"pantone_value\":\"17-1456\"},{\"id\":6,\"name\":\"blue turquoise\",\"year\":2005,\"color\":\"#53B0AE\",\"pantone_value\":\"15-5217\"}],\"support\":{\"url\":\"https:\/\/reqres.in\/#support-heading\",\"text\":\"To keep ReqRes free, contributions towards server costs are appreciated!\"}}\n\n"},{"result":{"nanos":26200,"millis":0.0262,"status":"passed"},"step":{"line":6,"prefix":"Then","index":2,"text":"status 200"}}],"executorName":"main","line":3,"name":"Get a User","description":"","durationMillis":1143.8222,"startTime":1710886726892,"failed":false,"refId":"[1:3]","endTime":1710886728049,"exampleIndex":-1}],"callDepth":0,"name":"Get user on reqres","description":"","resultDate":"2024-03-19 05:18:48 p. m.","durationMillis":1143.8222,"passedCount":1}