{"failedCount":0,"prefixedPath":"src\/test\/java\/users\/get\/user_get.feature","packageQualifiedName":"src.test.java.users.get.user_get","loopIndex":-1,"relativePath":"src\/test\/java\/users\/get\/user_get.feature","scenarioResults":[{"sectionIndex":1,"stepResults":[{"result":{"nanos":163073800,"millis":163.0738,"status":"passed"},"step":{"line":9,"prefix":"*","index":0,"text":"def jsonResponse = read(\"\/list_of_users.json\")"}},{"result":{"nanos":4828600,"millis":4.8286,"status":"passed"},"step":{"line":10,"prefix":"Given","index":1,"text":"url \"https:\/\/reqres.in\/\" + \"api\/users?page=\" + \"1\""}},{"result":{"nanos":1203813000,"millis":1203.813,"status":"passed"},"step":{"line":11,"prefix":"When","index":2,"text":"method get"},"stepLog":"12:18:26.887 request:\n1 > GET https:\/\/reqres.in\/api\/users?page=1\n1 > Host: reqres.in\n1 > Connection: Keep-Alive\n1 > User-Agent: Apache-HttpClient\/4.5.13 (Java\/11.0.21)\n1 > Accept-Encoding: gzip,deflate\n\n\n12:18:27.675 response time in milliseconds: 785\n1 < 200\n1 < Date: Wed, 20 Mar 2024 17:18:22 GMT\n1 < Content-Type: application\/json; charset=utf-8\n1 < Transfer-Encoding: chunked\n1 < Connection: keep-alive\n1 < Report-To: {\"group\":\"heroku-nel\",\"max_age\":3600,\"endpoints\":[{\"url\":\"https:\/\/nel.heroku.com\/reports?ts=1710509717&sid=c4c9725f-1ab0-44d8-820f-430df2718e11&s=QHIq1NvKmWwC13tEUvPJVaJGQknCkLc9FPCEZNrdKzY%3D\"}]}\n1 < Reporting-Endpoints: heroku-nel=https:\/\/nel.heroku.com\/reports?ts=1710509717&sid=c4c9725f-1ab0-44d8-820f-430df2718e11&s=QHIq1NvKmWwC13tEUvPJVaJGQknCkLc9FPCEZNrdKzY%3D\n1 < Nel: {\"report_to\":\"heroku-nel\",\"max_age\":3600,\"success_fraction\":0.005,\"failure_fraction\":0.05,\"response_headers\":[\"Via\"]}\n1 < X-Powered-By: Express\n1 < Access-Control-Allow-Origin: *\n1 < Etag: W\/\"3e4-2RLXvr5wTg9YQ6aH95CkYoFNuO8\"\n1 < Via: 1.1 vegur\n1 < Cache-Control: max-age=14400\n1 < CF-Cache-Status: HIT\n1 < Age: 6147\n1 < Vary: Accept-Encoding\n1 < Server: cloudflare\n1 < CF-RAY: 86775c70cfe4db15-MIA\n{\"page\":1,\"per_page\":6,\"total\":12,\"total_pages\":2,\"data\":[{\"id\":1,\"email\":\"george.bluth@reqres.in\",\"first_name\":\"George\",\"last_name\":\"Bluth\",\"avatar\":\"https:\/\/reqres.in\/img\/faces\/1-image.jpg\"},{\"id\":2,\"email\":\"janet.weaver@reqres.in\",\"first_name\":\"Janet\",\"last_name\":\"Weaver\",\"avatar\":\"https:\/\/reqres.in\/img\/faces\/2-image.jpg\"},{\"id\":3,\"email\":\"emma.wong@reqres.in\",\"first_name\":\"Emma\",\"last_name\":\"Wong\",\"avatar\":\"https:\/\/reqres.in\/img\/faces\/3-image.jpg\"},{\"id\":4,\"email\":\"eve.holt@reqres.in\",\"first_name\":\"Eve\",\"last_name\":\"Holt\",\"avatar\":\"https:\/\/reqres.in\/img\/faces\/4-image.jpg\"},{\"id\":5,\"email\":\"charles.morris@reqres.in\",\"first_name\":\"Charles\",\"last_name\":\"Morris\",\"avatar\":\"https:\/\/reqres.in\/img\/faces\/5-image.jpg\"},{\"id\":6,\"email\":\"tracey.ramos@reqres.in\",\"first_name\":\"Tracey\",\"last_name\":\"Ramos\",\"avatar\":\"https:\/\/reqres.in\/img\/faces\/6-image.jpg\"}],\"support\":{\"url\":\"https:\/\/reqres.in\/#support-heading\",\"text\":\"To keep ReqRes free, contributions towards server costs are appreciated!\"}}\n\n"},{"result":{"nanos":32100,"millis":0.0321,"status":"passed"},"step":{"line":12,"prefix":"Then","index":3,"text":"status 200"}},{"result":{"nanos":16177600,"millis":16.1776,"status":"passed"},"step":{"line":13,"prefix":"And","index":4,"text":"match $ == {\"page\":1,\"per_page\":6,\"total\":12,\"total_pages\":2,\"data\":[{\"id\":1,\"email\":\"george.bluth@reqres.in\",\"first_name\":\"George\",\"last_name\":\"Bluth\",\"avatar\":\"https:\/\/reqres.in\/img\/faces\/1-image.jpg\"},{\"id\":2,\"email\":\"janet.weaver@reqres.in\",\"first_name\":\"Janet\",\"last_name\":\"Weaver\",\"avatar\":\"https:\/\/reqres.in\/img\/faces\/2-image.jpg\"},{\"id\":3,\"email\":\"emma.wong@reqres.in\",\"first_name\":\"Emma\",\"last_name\":\"Wong\",\"avatar\":\"https:\/\/reqres.in\/img\/faces\/3-image.jpg\"},{\"id\":4,\"email\":\"eve.holt@reqres.in\",\"first_name\":\"Eve\",\"last_name\":\"Holt\",\"avatar\":\"https:\/\/reqres.in\/img\/faces\/4-image.jpg\"},{\"id\":5,\"email\":\"charles.morris@reqres.in\",\"first_name\":\"Charles\",\"last_name\":\"Morris\",\"avatar\":\"https:\/\/reqres.in\/img\/faces\/5-image.jpg\"},{\"id\":6,\"email\":\"tracey.ramos@reqres.in\",\"first_name\":\"Tracey\",\"last_name\":\"Ramos\",\"avatar\":\"https:\/\/reqres.in\/img\/faces\/6-image.jpg\"}],\"support\":{\"url\":\"https:\/\/reqres.in\/#support-heading\",\"text\":\"To keep ReqRes free, contributions towards server costs are appreciated!\"}}"}},{"result":{"nanos":556000,"millis":0.556,"status":"passed"},"step":{"line":14,"prefix":"And","index":5,"text":"match $ == jsonResponse"}}],"executorName":"main","line":8,"name":"Get a list users","description":"","durationMillis":1388.4811,"startTime":1710955106297,"failed":false,"refId":"[2:8]","endTime":1710955107697,"exampleIndex":-1}],"callDepth":0,"name":"Get user on reqres","description":"","resultDate":"2024-03-20 12:18:27 p. m.","durationMillis":1388.4811,"passedCount":1}